12. Prediction Plots
…
cv_summary <- PP_LM_MM_accuracy %>%
  group_by(Trait, met, Model, Predictor_Set) %>%
  summarise(
    mean_accuracy = round(mean(Accuracy, na.rm = TRUE),2),
    sd_accuracy   = round(sd(Accuracy, na.rm = TRUE),2),
    n  = n()
    )

`summarise()` has grouped output by 'Trait', 'met', 'Model'. You can override
using the `.groups` argument.

cv_summary

# A tibble: 1,012 × 7
# Groups:   Trait, met, Model [148]
   Trait               met   Model Predictor_Set mean_accuracy sd_accuracy     n
   <chr>               <chr> <chr> <chr>                 <dbl>       <dbl> <int>
 1 AdjunctQualityScore LM_m… Elas… ENDVI                  0.11        0.2    100
 2 AdjunctQualityScore LM_m… Elas… EVI                    0.1         0.22   100
 3 AdjunctQualityScore LM_m… Elas… GIPVI                  0.11        0.2    100
 4 AdjunctQualityScore LM_m… Elas… GNDVI                  0.11        0.2    100
 5 AdjunctQualityScore LM_m… Elas… NDRE                   0.1         0.18   100
 6 AdjunctQualityScore LM_m… Elas… NDVI                   0.14        0.23   100
 7 AdjunctQualityScore LM_m… Elas… NRI                    0.14        0.23   100
 8 AdjunctQualityScore LM_m… Elas… PSRI                   0.13        0.25   100
 9 AdjunctQualityScore LM_m… Elas… SAVI                   0.11        0.21   100
10 AdjunctQualityScore LM_m… Elas… combined               0.12        0.23   100
# ℹ 1,002 more rows
…
cv_summary <- GP_res %>%
  group_by(Trait, met) %>%
  summarise(
    mean_accuracy = round(mean(Cor, na.rm = TRUE),2),
    sd_accuracy   = round(sd(Cor, na.rm = TRUE),2),
    n  = n()
    )

`summarise()` has grouped output by 'Trait'. You can override using the
`.groups` argument.

cv_summary

# A tibble: 42 × 5
# Groups:   Trait [14]
   Trait  met   mean_accuracy sd_accuracy     n
   <fct>  <chr>         <dbl>       <dbl> <int>
 1 GY     DK             0.18        0.16  3953
 2 GY     GP             0.61        0.36  2318
 3 GY     MT             0.21        0.22  8135
 4 HD     DK             0.45        0.19  4788
 5 HD     GP             0.68        0.24  2481
 6 HD     MT             0.54        0.18  8750
 7 KW     DK             0.72        0.11  1500
 8 KW     GP             0.75        0.12   742
 9 KW     MT             0.72        0.12  3500
10 on6/64 DK             0.5         0.21  2000
# ℹ 32 more rows
…
