4. Exploratory Phenotype analysis
…
weather <- weather %>% #filter(!year == "2020") 
  mutate( year = year(DATE),doy = yday(DATE), month = month(DATE) ) 

weather_filtered <- weather %>% filter(month(DATE) <= 6) %>% filter(month(DATE) > 3) %>% 
  mutate( year = year(DATE), month_day = as.Date(format(DATE, "2000-%m-%d")))

JD_map_filtered <- JD_map %>% filter(month(Date) <= 6) %>% filter(month(Date) > 3) %>% 
  mutate( year = year(Date), month_day = as.Date(format(Date, "2000-%m-%d")), 
          JD_date_norm = as.Date(format(JD_date, "2000-%m-%d") ))

# GDD and flight timepoint GDD. 
JD_map_filtered[,1:2]

# A tibble: 34 × 2
    Year Timepoint
   <dbl>     <dbl>
 1  2021         1
 2  2021         2
 3  2021         3
 4  2021         4
 5  2021         5
 6  2022         1
 7  2022         2
 8  2022         3
 9  2022         4
10  2022         5
# ℹ 24 more rows
…
###################################################################################################################
# Env- how a VI or componenet correaltes over years
ii<- cs_mq %>%
  group_by(Env,  Trait) %>%
  summarise(mean = mean(correlation), var= var(correlation), min= min(correlation), sd= sd(correlation), n = n())%>% arrange(Trait)

print(ii, n= 34)

# A tibble: 36 × 7
# Groups:   Env [3]
   Env    Trait                    mean     var     min     sd     n
   <chr>  <chr>                   <dbl>   <dbl>   <dbl>  <dbl> <int>
 1 HELF24 AdjunctQualityScore  -0.00360 0.0231  -0.237  0.152     54
 2 MCG23  AdjunctQualityScore  -0.0143  0.0228  -0.264  0.151     54
 3 MCG25  AdjunctQualityScore  -0.0231  0.0332  -0.338  0.182     54
 4 HELF24 All_MaltQualityScore -0.00201 0.00605 -0.0934 0.0778    54
 5 MCG23  All_MaltQualityScore  0.0655  0.0324  -0.321  0.180     54
 6 MCG25  All_MaltQualityScore -0.00799 0.0112  -0.289  0.106     54
 7 HELF24 Alpha.amylase.20.DU. -0.0161  0.00596 -0.190  0.0772    54
 8 MCG23  Alpha.amylase.20.DU.  0.00824 0.00804 -0.146  0.0897    54
 9 MCG25  Alpha.amylase.20.DU.  0.0137  0.0330  -0.350  0.182     54
10 HELF24 BarleyProtein...     -0.0298  0.0266  -0.369  0.163     54
11 MCG23  BarleyProtein...     -0.141   0.0991  -0.553  0.315     54
12 MCG25  BarleyProtein...     -0.0848  0.0508  -0.406  0.225     54
13 HELF24 Beta.glucan.ppm.      0.00670 0.00969 -0.252  0.0984    54
14 MCG23  Beta.glucan.ppm.     -0.0255  0.00925 -0.195  0.0962    54
15 MCG25  Beta.glucan.ppm.     -0.0384  0.0599  -0.463  0.245     54
16 HELF24 DP..ASBC.             0.00327 0.00932 -0.181  0.0966    54
17 MCG23  DP..ASBC.            -0.0664  0.0228  -0.304  0.151     54
18 MCG25  DP..ASBC.            -0.0587  0.0271  -0.322  0.165     54
19 HELF24 FAN.ppm.              0.0133  0.00728 -0.177  0.0853    54
20 MCG23  FAN.ppm.             -0.00300 0.0362  -0.378  0.190     54
21 MCG25  FAN.ppm.              0.0511  0.0146  -0.261  0.121     54
22 HELF24 KernelWeight.mg.     -0.0426  0.0507  -0.359  0.225     54
23 MCG23  KernelWeight.mg.     -0.0811  0.0676  -0.482  0.260     54
24 MCG25  KernelWeight.mg.     -0.00865 0.0128  -0.244  0.113     54
25 HELF24 MaltExtract...       -0.0287  0.0127  -0.255  0.112     54
26 MCG23  MaltExtract...        0.127   0.0780  -0.437  0.279     54
27 MCG25  MaltExtract...        0.132   0.0360  -0.150  0.190     54
28 HELF24 S.T                   0.0389  0.0226  -0.266  0.150     54
29 MCG23  S.T                   0.152   0.114   -0.561  0.337     54
30 MCG25  S.T                   0.137   0.0368  -0.210  0.192     54
31 HELF24 WortProtein...        0.0115  0.0115  -0.194  0.107     54
32 MCG23  WortProtein...        0.00419 0.00978 -0.191  0.0989    54
33 MCG25  WortProtein...        0.0628  0.0162  -0.242  0.127     54
34 HELF24 on6.64....           -0.0189  0.0225  -0.218  0.150     54
# ℹ 2 more rows
…
